[
  {
    "pk": 1,
    "model": "tariff.nficoefficient",
    "fields": {
      "tariff_number": 201,
      "b0": -9.693932,
      "b1": 2.875716,
      "b2": -0.003608,
      "b3": 0.0000238,
      "b4": 0.006454,
      "b5": -0.354239,
      "b6": -0.00019,
      "b7": -0.293326
    }
  },
  {
    "pk": 2,
    "model": "tariff.nficoefficient",
    "fields": {
      "tariff_number": 202,
      "b0": -10.19071,
      "b1": 3.011815,
      "b2": -0.00436,
      "b3": 0.0000566,
      "b4": 0.005186,
      "b5": 0,
      "b6": -0.0000509,
      "b7": -0.12489
    }
  },
  {
    "pk": 3,
    "model": "tariff.nficoefficient",
    "fields": {
      "tariff_number": 203,
      "b0": -10.40762,
      "b1": 3.148954,
      "b2": -0.004765,
      "b3": 0.0000367,
      "b4": 0.005617,
      "b5": -0.29285,
      "b6": -0.000207,
      "b7": -0.345357
    }
  },
  {
    "pk": 4,
    "model": "tariff.nficoefficient",
    "fields": {
      "tariff_number": 204,
      "b0": -11.22559,
      "b1": 3.432392,
      "b2": -0.005889,
      "b3": 0.0000339,
      "b4": 0.005502,
      "b5": -0.283506,
      "b6": -0.000226,
      "b7": -0.372618
    }
  },
  {
    "pk": 5,
    "model": "tariff.nficoefficient",
    "fields": {
      "tariff_number": 205,
      "b0": -11.02461,
      "b1": 3.208716,
      "b2": -0.005054,
      "b3": 1.15564,
      "b4": 0.003814,
      "b5": -0.253676,
      "b6": -0.0000437,
      "b7": -0.368829
    }
  },
  {
    "pk": 6,
    "model": "tariff.nficoefficient",
    "fields": {
      "tariff_number": 206,
      "b0": -11.14165,
      "b1": 3.390109,
      "b2": -0.005383,
      "b3": 0,
      "b4": 0.005589,
      "b5": -0.087306,
      "b6": -0.000157,
      "b7": -0.285632
    }
  },
  {
    "pk": 7,
    "model": "tariff.nficoefficient",
    "fields": {
      "tariff_number": 207,
      "b0": -8.373972,
      "b1": 2.42876,
      "b2": -0.002026,
      "b3": 0.0000313,
      "b4": 0.005209,
      "b5": 0,
      "b6": 0,
      "b7": -0.266245
    }
  },
  {
    "pk": 8,
    "model": "tariff.nficoefficient",
    "fields": {
      "tariff_number": 208,
      "b0": -9.127325,
      "b1": 2.735734,
      "b2": -0.002371,
      "b3": 0.0000253,
      "b4": 0,
      "b5": -0.221676,
      "b6": -0.0000574,
      "b7": -0.228611
    }
  },
  {
    "pk": 9,
    "model": "tariff.nficoefficient",
    "fields": {
      "tariff_number": 209,
      "b0": -13.29496,
      "b1": 4.119043,
      "b2": -0.007279,
      "b3": 0.0000036900000000000002,
      "b4": 0.005529,
      "b5": -0.301906,
      "b6": -0.000352,
      "b7": 0
    }
  },
  {
    "pk": 10,
    "model": "tariff.nficoefficient",
    "fields": {
      "tariff_number": 210,
      "b0": -6.819805,
      "b1": 1.795885,
      "b2": 0.00216,
      "b3": 0.0000197,
      "b4": 0.006278,
      "b5": -0.230662,
      "b6": -0.000452,
      "b7": -0.338596
    }
  },
  {
    "pk": 11,
    "model": "tariff.nficoefficient",
    "fields": {
      "tariff_number": 211,
      "b0": -10.72603,
      "b1": 3.2303,
      "b2": -0.004654,
      "b3": 0,
      "b4": 0.002566,
      "b5": 0,
      "b6": 0,
      "b7": 0
    }
  },
  {
    "pk": 12,
    "model": "tariff.nficoefficient",
    "fields": {
      "tariff_number": 212,
      "b0": -10.14396,
      "b1": 2.772788,
      "b2": -0.003579,
      "b3": 0.0000762,
      "b4": 0.013275,
      "b5": -0.157258,
      "b6": 0,
      "b7": -0.309897
    }
  },
  {
    "pk": 13,
    "model": "tariff.nficoefficient",
    "fields": {
      "tariff_number": 213,
      "b0": -10.99258,
      "b1": 3.264363,
      "b2": -0.005054,
      "b3": 0.0000714,
      "b4": 0.003558,
      "b5": -0.154775,
      "b6": -0.000124,
      "b7": 0
    }
  },
  {
    "pk": 14,
    "model": "tariff.nficoefficient",
    "fields": {
      "tariff_number": 214,
      "b0": -10.46496,
      "b1": 3.186909,
      "b2": -0.004321,
      "b3": 0,
      "b4": 0.003074,
      "b5": -0.555413,
      "b6": -0.000304,
      "b7": 0
    }
  },
  {
    "pk": 15,
    "model": "tariff.nficoefficient",
    "fields": {
      "tariff_number": 215,
      "b0": -10.14301,
      "b1": 3.161973,
      "b2": -0.004693,
      "b3": 0,
      "b4": 0.004242,
      "b5": -0.137419,
      "b6": -0.000482,
      "b7": -0.388137
    }
  },
  {
    "pk": 16,
    "model": "tariff.nficoefficient",
    "fields": {
      "tariff_number": 216,
      "b0": -9.760576,
      "b1": 2.838556,
      "b2": -0.003247,
      "b3": 0.0000415,
      "b4": 0.006981,
      "b5": -0.190014,
      "b6": -0.000152,
      "b7": -0.397608
    }
  },
  {
    "pk": 17,
    "model": "tariff.nficoefficient",
    "fields": {
      "tariff_number": 217,
      "b0": -10.86935,
      "b1": 3.209637,
      "b2": -0.004539,
      "b3": 0.0000583,
      "b4": 0.003261,
      "b5": -0.088868,
      "b6": 0,
      "b7": -0.437208
    }
  },
  {
    "pk": 18,
    "model": "tariff.nficoefficient",
    "fields": {
      "tariff_number": 218,
      "b0": -10.59635,
      "b1": 3.11284,
      "b2": -0.004627,
      "b3": 0.000047,
      "b4": 0.008531,
      "b5": -0.289871,
      "b6": -0.00015,
      "b7": -0.278017
    }
  },
  {
    "pk": 19,
    "model": "tariff.nficoefficient",
    "fields": {
      "tariff_number": 219,
      "b0": -11.03685,
      "b1": 3.277674,
      "b2": -0.005875,
      "b3": 0.0000335,
      "b4": 0.014177,
      "b5": -0.125906,
      "b6": -0.000395,
      "b7": -0.517794
    }
  },
  {
    "pk": 20,
    "model": "tariff.nficoefficient",
    "fields": {
      "tariff_number": 220,
      "b0": -8.115184,
      "b1": 2.171664,
      "b2": -0.000869,
      "b3": 0,
      "b4": 0.007345,
      "b5": -0.220946,
      "b6": 0,
      "b7": -0.179818
    }
  },
  {
    "pk": 21,
    "model": "tariff.nficoefficient",
    "fields": {
      "tariff_number": 221,
      "b0": -11.03194,
      "b1": 3.359299,
      "b2": -0.005177,
      "b3": 0,
      "b4": 0.002811,
      "b5": 0,
      "b6": -0.000202,
      "b7": 0
    }
  },
  {
    "pk": 22,
    "model": "tariff.nficoefficient",
    "fields": {
      "tariff_number": 222,
      "b0": -8.957069,
      "b1": 2.503072,
      "b2": -0.002034,
      "b3": 0.0000718,
      "b4": 0.007726,
      "b5": -0.347306,
      "b6": -0.000375,
      "b7": 0
    }
  },
  {
    "pk": 23,
    "model": "tariff.nficoefficient",
    "fields": {
      "tariff_number": 223,
      "b0": -8.015882,
      "b1": 2.179587,
      "b2": -0.0000905,
      "b3": 0.0000585,
      "b4": 0.006317,
      "b5": -0.130022,
      "b6": -0.000225,
      "b7": -0.248277
    }
  },
  {
    "pk": 24,
    "model": "tariff.nficoefficient",
    "fields": {
      "tariff_number": 224,
      "b0": -10.67774,
      "b1": 3.402548,
      "b2": -0.007804,
      "b3": 0,
      "b4": 0.005672,
      "b5": -0.113936,
      "b6": -0.000456,
      "b7": -0.148527
    }
  },
  {
    "pk": 25,
    "model": "tariff.nficoefficient",
    "fields": {
      "tariff_number": 225,
      "b0": -11.1248,
      "b1": 3.271653,
      "b2": -0.005234,
      "b3": 0.0000941,
      "b4": 0.004465,
      "b5": -0.257368,
      "b6": -0.000139,
      "b7": 0
    }
  },
  {
    "pk": 26,
    "model": "tariff.nficoefficient",
    "fields": {
      "tariff_number": 226,
      "b0": -8.661268,
      "b1": 2.437937,
      "b2": -0.001629,
      "b3": 0.000059,
      "b4": 0.008327,
      "b5": -0.169188,
      "b6": -0.000342,
      "b7": -0.171477
    }
  },
  {
    "pk": 27,
    "model": "tariff.nficoefficient",
    "fields": {
      "tariff_number": 227,
      "b0": -6.26907,
      "b1": 1.663056,
      "b2": 5.79063,
      "b3": 0,
      "b4": 0,
      "b5": 0,
      "b6": -0.00038,
      "b7": -0.333926
    }
  },
  {
    "pk": 28,
    "model": "tariff.nficoefficient",
    "fields": {
      "tariff_number": 228,
      "b0": -9.020448,
      "b1": 2.555589,
      "b2": -0.002027,
      "b3": 0.0000439,
      "b4": 0.002062,
      "b5": -0.239662,
      "b6": 0,
      "b7": -0.214907
    }
  },
  {
    "pk": 29,
    "model": "tariff.nficoefficient",
    "fields": {
      "tariff_number": 229,
      "b0": -7.719545,
      "b1": 1.86753,
      "b2": 0.002,
      "b3": 0.0000524,
      "b4": 0.010988,
      "b5": -0.274791,
      "b6": 0,
      "b7": -0.280542
    }
  },
  {
    "pk": 30,
    "model": "tariff.nficoefficient",
    "fields": {
      "tariff_number": 230,
      "b0": -9.757205,
      "b1": 3.338594,
      "b2": -0.00613,
      "b3": -0.000264,
      "b4": 0,
      "b5": -0.341705,
      "b6": -0.00051,
      "b7": -0.234645
    }
  }
]
