[
  {
    "pk": 1,
    "model": "tariff.number",
    "fields": {
      "number": 1
    }
  },
  {
    "pk": 2,
    "model": "tariff.number",
    "fields": {
      "number": 2
    }
  },
  {
    "pk": 3,
    "model": "tariff.number",
    "fields": {
      "number": 3
    }
  },
  {
    "pk": 4,
    "model": "tariff.number",
    "fields": {
      "number": 4
    }
  },
  {
    "pk": 5,
    "model": "tariff.number",
    "fields": {
      "number": 5
    }
  },
  {
    "pk": 6,
    "model": "tariff.number",
    "fields": {
      "number": 6
    }
  },
  {
    "pk": 7,
    "model": "tariff.number",
    "fields": {
      "number": 7
    }
  },
  {
    "pk": 8,
    "model": "tariff.number",
    "fields": {
      "number": 8
    }
  },
  {
    "pk": 9,
    "model": "tariff.number",
    "fields": {
      "number": 9
    }
  },
  {
    "pk": 10,
    "model": "tariff.number",
    "fields": {
      "number": 10
    }
  },
  {
    "pk": 11,
    "model": "tariff.number",
    "fields": {
      "number": 11
    }
  },
  {
    "pk": 12,
    "model": "tariff.number",
    "fields": {
      "number": 12
    }
  },
  {
    "pk": 13,
    "model": "tariff.number",
    "fields": {
      "number": 13
    }
  },
  {
    "pk": 14,
    "model": "tariff.number",
    "fields": {
      "number": 14
    }
  },
  {
    "pk": 15,
    "model": "tariff.number",
    "fields": {
      "number": 15
    }
  },
  {
    "pk": 16,
    "model": "tariff.number",
    "fields": {
      "number": 16
    }
  },
  {
    "pk": 17,
    "model": "tariff.number",
    "fields": {
      "number": 17
    }
  },
  {
    "pk": 18,
    "model": "tariff.number",
    "fields": {
      "number": 18
    }
  },
  {
    "pk": 19,
    "model": "tariff.number",
    "fields": {
      "number": 19
    }
  },
  {
    "pk": 20,
    "model": "tariff.number",
    "fields": {
      "number": 20
    }
  },
  {
    "pk": 21,
    "model": "tariff.number",
    "fields": {
      "number": 21
    }
  },
  {
    "pk": 22,
    "model": "tariff.number",
    "fields": {
      "number": 22
    }
  },
  {
    "pk": 23,
    "model": "tariff.number",
    "fields": {
      "number": 23
    }
  },
  {
    "pk": 24,
    "model": "tariff.number",
    "fields": {
      "number": 24
    }
  },
  {
    "pk": 25,
    "model": "tariff.number",
    "fields": {
      "number": 25
    }
  },
  {
    "pk": 26,
    "model": "tariff.number",
    "fields": {
      "number": 26
    }
  },
  {
    "pk": 27,
    "model": "tariff.number",
    "fields": {
      "number": 27
    }
  },
  {
    "pk": 28,
    "model": "tariff.number",
    "fields": {
      "number": 28
    }
  },
  {
    "pk": 29,
    "model": "tariff.number",
    "fields": {
      "number": 29
    }
  },
  {
    "pk": 30,
    "model": "tariff.number",
    "fields": {
      "number": 30
    }
  },
  {
    "pk": 31,
    "model": "tariff.number",
    "fields": {
      "number": 31
    }
  },
  {
    "pk": 32,
    "model": "tariff.number",
    "fields": {
      "number": 32
    }
  },
  {
    "pk": 33,
    "model": "tariff.number",
    "fields": {
      "number": 33
    }
  },
  {
    "pk": 34,
    "model": "tariff.number",
    "fields": {
      "number": 34
    }
  },
  {
    "pk": 35,
    "model": "tariff.number",
    "fields": {
      "number": 35
    }
  },
  {
    "pk": 36,
    "model": "tariff.number",
    "fields": {
      "number": 36
    }
  },
  {
    "pk": 37,
    "model": "tariff.number",
    "fields": {
      "number": 37
    }
  },
  {
    "pk": 38,
    "model": "tariff.number",
    "fields": {
      "number": 38
    }
  },
  {
    "pk": 39,
    "model": "tariff.number",
    "fields": {
      "number": 39
    }
  },
  {
    "pk": 40,
    "model": "tariff.number",
    "fields": {
      "number": 40
    }
  },
  {
    "pk": 41,
    "model": "tariff.number",
    "fields": {
      "number": 41
    }
  },
  {
    "pk": 42,
    "model": "tariff.number",
    "fields": {
      "number": 42
    }
  },
  {
    "pk": 43,
    "model": "tariff.number",
    "fields": {
      "number": 43
    }
  },
  {
    "pk": 44,
    "model": "tariff.number",
    "fields": {
      "number": 44
    }
  },
  {
    "pk": 45,
    "model": "tariff.number",
    "fields": {
      "number": 45
    }
  },
  {
    "pk": 46,
    "model": "tariff.number",
    "fields": {
      "number": 46
    }
  },
  {
    "pk": 47,
    "model": "tariff.number",
    "fields": {
      "number": 47
    }
  },
  {
    "pk": 48,
    "model": "tariff.number",
    "fields": {
      "number": 48
    }
  },
  {
    "pk": 49,
    "model": "tariff.number",
    "fields": {
      "number": 49
    }
  },
  {
    "pk": 50,
    "model": "tariff.number",
    "fields": {
      "number": 50
    }
  },
  {
    "pk": 51,
    "model": "tariff.number",
    "fields": {
      "number": 51
    }
  },
  {
    "pk": 52,
    "model": "tariff.number",
    "fields": {
      "number": 52
    }
  },
  {
    "pk": 53,
    "model": "tariff.number",
    "fields": {
      "number": 53
    }
  },
  {
    "pk": 54,
    "model": "tariff.number",
    "fields": {
      "number": 54
    }
  },
  {
    "pk": 55,
    "model": "tariff.number",
    "fields": {
      "number": 55
    }
  },
  {
    "pk": 56,
    "model": "tariff.number",
    "fields": {
      "number": 56
    }
  },
  {
    "pk": 57,
    "model": "tariff.number",
    "fields": {
      "number": 57
    }
  },
  {
    "pk": 58,
    "model": "tariff.number",
    "fields": {
      "number": 58
    }
  },
  {
    "pk": 59,
    "model": "tariff.number",
    "fields": {
      "number": 59
    }
  },
  {
    "pk": 60,
    "model": "tariff.number",
    "fields": {
      "number": 60
    }
  },
  {
    "pk": 61,
    "model": "tariff.number",
    "fields": {
      "number": 61
    }
  },
  {
    "pk": 62,
    "model": "tariff.number",
    "fields": {
      "number": 62
    }
  },
  {
    "pk": 63,
    "model": "tariff.number",
    "fields": {
      "number": 63
    }
  },
  {
    "pk": 64,
    "model": "tariff.number",
    "fields": {
      "number": 64
    }
  },
  {
    "pk": 65,
    "model": "tariff.number",
    "fields": {
      "number": 65
    }
  },
  {
    "pk": 66,
    "model": "tariff.number",
    "fields": {
      "number": 66
    }
  },
  {
    "pk": 67,
    "model": "tariff.number",
    "fields": {
      "number": 67
    }
  },
  {
    "pk": 68,
    "model": "tariff.number",
    "fields": {
      "number": 68
    }
  },
  {
    "pk": 69,
    "model": "tariff.number",
    "fields": {
      "number": 69
    }
  },
  {
    "pk": 70,
    "model": "tariff.number",
    "fields": {
      "number": 70
    }
  },
  {
    "pk": 71,
    "model": "tariff.number",
    "fields": {
      "number": 71
    }
  },
  {
    "pk": 72,
    "model": "tariff.number",
    "fields": {
      "number": 72
    }
  },
  {
    "pk": 73,
    "model": "tariff.number",
    "fields": {
      "number": 73
    }
  },
  {
    "pk": 74,
    "model": "tariff.number",
    "fields": {
      "number": 74
    }
  },
  {
    "pk": 75,
    "model": "tariff.number",
    "fields": {
      "number": 75
    }
  },
  {
    "pk": 76,
    "model": "tariff.number",
    "fields": {
      "number": 76
    }
  },
  {
    "pk": 77,
    "model": "tariff.number",
    "fields": {
      "number": 77
    }
  },
  {
    "pk": 78,
    "model": "tariff.number",
    "fields": {
      "number": 78
    }
  },
  {
    "pk": 79,
    "model": "tariff.number",
    "fields": {
      "number": 79
    }
  },
  {
    "pk": 80,
    "model": "tariff.number",
    "fields": {
      "number": 80
    }
  },
  {
    "pk": 81,
    "model": "tariff.number",
    "fields": {
      "number": 81
    }
  },
  {
    "pk": 82,
    "model": "tariff.number",
    "fields": {
      "number": 82
    }
  },
  {
    "pk": 83,
    "model": "tariff.number",
    "fields": {
      "number": 83
    }
  },
  {
    "pk": 84,
    "model": "tariff.number",
    "fields": {
      "number": 84
    }
  },
  {
    "pk": 85,
    "model": "tariff.number",
    "fields": {
      "number": 85
    }
  },
  {
    "pk": 86,
    "model": "tariff.number",
    "fields": {
      "number": 86
    }
  },
  {
    "pk": 87,
    "model": "tariff.number",
    "fields": {
      "number": 87
    }
  },
  {
    "pk": 88,
    "model": "tariff.number",
    "fields": {
      "number": 88
    }
  },
  {
    "pk": 89,
    "model": "tariff.number",
    "fields": {
      "number": 89
    }
  },
  {
    "pk": 90,
    "model": "tariff.number",
    "fields": {
      "number": 90
    }
  },
  {
    "pk": 91,
    "model": "tariff.number",
    "fields": {
      "number": 91
    }
  },
  {
    "pk": 92,
    "model": "tariff.number",
    "fields": {
      "number": 92
    }
  },
  {
    "pk": 93,
    "model": "tariff.number",
    "fields": {
      "number": 93
    }
  },
  {
    "pk": 94,
    "model": "tariff.number",
    "fields": {
      "number": 94
    }
  },
  {
    "pk": 95,
    "model": "tariff.number",
    "fields": {
      "number": 95
    }
  },
  {
    "pk": 96,
    "model": "tariff.number",
    "fields": {
      "number": 96
    }
  },
  {
    "pk": 97,
    "model": "tariff.number",
    "fields": {
      "number": 97
    }
  },
  {
    "pk": 98,
    "model": "tariff.number",
    "fields": {
      "number": 98
    }
  },
  {
    "pk": 99,
    "model": "tariff.number",
    "fields": {
      "number": 99
    }
  },
  {
    "pk": 100,
    "model": "tariff.number",
    "fields": {
      "number": 100
    }
  }
]
