[
{
  "pk": 1, 
  "model": "observation.forestform", 
  "fields": {
    "code": 0, 
    "description": "Hochwald"
  }
},
{
  "pk": 2, 
  "model": "observation.forestform", 
  "fields": {
    "code": 1, 
    "description": "Stockausschl\u00e4ge"
  }
},
{
  "pk": 3, 
  "model": "observation.forestform", 
  "fields": {
    "code": 2, 
    "description": "ehemaliger Mittelwald"
  }
},
{
  "pk": 4, 
  "model": "observation.forestform", 
  "fields": {
    "code": 3, 
    "description": "Buschwald"
  }
}
]
