[
{
  "pk": 1, 
  "model": "observation.gap", 
  "fields": {
    "code": "B", 
    "description": "Bl\u00f6sse/unbestockt"
  }
},
{
  "pk": 2, 
  "model": "observation.gap", 
  "fields": {
    "code": "N", 
    "description": "nicht Holzboden"
  }
},
{
  "pk": 3, 
  "model": "observation.gap", 
  "fields": {
    "code": "0", 
    "description": "keine Angaben"
  }
}
]
