[
{
  "pk": 1, 
  "model": "observation.rank", 
  "fields": {
    "explanation": "deutlich \u00fcber den oberen Kronenschirm (inkl. \u00dcberh\u00e4lter) hinausragend.", 
    "code": 1, 
    "description": "vorherrschend"
  }
},
{
  "pk": 2, 
  "model": "observation.rank", 
  "fields": {
    "explanation": "am oberen Kronenschirm beteiligt, gut entwicklete Krone (relativ zu den anderen B\u00e4umen des Bestandes, muss also die Krone zwingend rund sein", 
    "code": 2, 
    "description": "herrschend"
  }
},
{
  "pk": 3, 
  "model": "observation.rank", 
  "fields": {
    "explanation": "am oberen Kronenschirm beteiligt, Krone weniger gut und gleichm\u00e4ssig entwicklet.", 
    "code": 3, 
    "description": "mitherrschend"
  }
},
{
  "pk": 4, 
  "model": "observation.rank", 
  "fields": {
    "explanation": "am oberen Kronenschirm nicht beteiligt (kein direktes Licht mehr, aber in Ber\u00fchrung mit den Kronen des Hauptbestandes.", 
    "code": 4, 
    "description": "beherrscht"
  }
},
{
  "pk": 5, 
  "model": "observation.rank", 
  "fields": {
    "explanation": "Gipfel nicht mehr in Ber\u00fchrung mit den Kronen des Hauptbestandes.", 
    "code": 5, 
    "description": "unterdr\u00fcckt"
  }
}
]
